{
	"meta": {
		"totalCountIsEstimate": false,
		"count": 20,
		"pageCount": 3,
		"totalCount": 8,
		"next": "/transactions?transform=true&page=2&limit=100",
		"previous": null,
		"self": "/transactions?transform=true&page=1&limit=100",
		"first": "/transactions?transform=true&page=1&limit=100",
		"last": "/transactions?transform=true&page=10135&limit=100"
	},
	"data": [
		{
			"id": "9049c49eb0e0d9b14becc38d4f51ab993aa9fc7f6a7b23a1aff9e7bc060d2bb1",
			"blockId": "34e9ce5706d3550507b67676fec5c90a9bf8869c5def4305c953c3e8aa46f05e",
			"version": 2,
			"type": 3,
			"typeGroup": 1,
			"amount": "0",
			"fee": "1000000",
			"sender": "DSyG9hK9CE8eyfddUoEvsga4kNVQLdw2ve",
			"senderPublicKey": "033a5474f68f92f254691e93c06a2f22efaf7d66b543a53efcece021819653a200",
			"recipient": "D6i8P5N44rFto6M6RALyUXLLs7Q1A1WREW",
			"signature": "cf96032e58e39066d1f156bb44e6fc34ee9926f7b40976ebaaee4054ab7900a9746efc64227eab4c1c657a0f11259d23967e10affc8f7d9f2d39db3334331c2f",
			"signSignature": "e4ce6340dae3c5b7c88c0f2c3fbee9e9d1eb52b1bde400e9ca32af69a899d653d2b791b80a732993c7067eeea6cb419be6b8a41c522ff8b64cf8c23843899f69",
			"asset": {
				"votes": ["+03980b0482c60610695f2edc61bcfdae0d1048fb56d0041930eddc9e5c1246a5f5"]
			},
			"confirmations": 105763,
			"timestamp": {
				"epoch": 134701224,
				"unix": 1624802424,
				"human": "2021-06-27T14:00:24.000Z"
			},
			"nonce": "21662"
		},
		{
			"id": "9049c49eb0e0d9b14becc38d4f51ab993aa9fc7f6a7b23a1aff9e7bc060d2bb1",
			"blockId": "34e9ce5706d3550507b67676fec5c90a9bf8869c5def4305c953c3e8aa46f05e",
			"version": 2,
			"type": 6,
			"typeGroup": 1,
			"amount": "0",
			"fee": "10000000",
			"sender": "DBk4cPYpqp7EBcvkstVDpyX7RQJNHxpMg8",
			"senderPublicKey": "0236d5232cdbd1e7ab87fad10ebe689c4557bc9d0c408b6773be964c837231d5f0",
			"recipient": "DBk4cPYpqp7EBcvkstVDpyX7RQJNHxpMg8",
			"signature": "3045022100ec305763799c17bd1d1a3b450dc4a3c71225e063ea8402e6ead55710b1cae30e022057550e02e4907d75695c013580a148ce0806b7b76031b03e5adf52934cddbb28",
			"signSignature": "304402202660cce7363884fbca0077523fca948374ce07f48cff2624e9450bfe382b99d5022065695030b29ac169742732a9a3367db556499548d17901886cfaf510268a9a5e",
			"vendorField": "itsanametoo: profit share",
			"asset": {
				"payments": [
					{ "amount": "897024432", "recipientId": "D6i8P5N44rFto6M6RALyUXLLs7Q1A1WREW" },
					{ "amount": "1107100", "recipientId": "D8wgoDnRNAW1tnjeTy5a39zMp8Wa3sJSFZ" },
					{ "amount": "33332", "recipientId": "DBATZrT4dpe85EH766crio3ooApjaAvQDf" },
					{ "amount": "8766", "recipientId": "DTwEiK74duN5Van99HdiSZc5nrrfMS77rZ" },
					{ "amount": "5643", "recipientId": "DM7UiH4b2rW2Nv11Wu6ToiZi8MJhGCEWhP" },
					{ "amount": "4617", "recipientId": "DJeeNChUW5WzRLFuTEY3GEXiuYmgMYZM3Z" },
					{ "amount": "1350", "recipientId": "DFMqgotRcYwk6KUaBJhoAuJvRUSMYxabZv" },
					{ "amount": "908028", "recipientId": "DUBcre2e5KMykYr6xK56T5BrwkKMZkUF8r" },
					{ "amount": "906732", "recipientId": "DE1BK8iL17PiBwo9TUCfkkm1vnUkobBwj8" }
				]
			},
			"confirmations": 18542,
			"timestamp": { "epoch": 94770008, "unix": 1584871208, "human": "2020-03-22T10:00:08.000Z" },
			"nonce": "2939"
		},
		{
			"id": "831b51023333462bd285847b5b927597acab497e6aa0081e8460cfe0b4597341",
			"blockId": "6402845694ea690b925299499402c1f58416994f3cf87c9a58db74546c8e0ad7",
			"version": 2,
			"type": 6,
			"typeGroup": 1,
			"amount": "0",
			"fee": "10000000",
			"sender": "DBk4cPYpqp7EBcvkstVDpyX7RQJNHxpMg8",
			"senderPublicKey": "0236d5232cdbd1e7ab87fad10ebe689c4557bc9d0c408b6773be964c837231d5f0",
			"recipient": "DBk4cPYpqp7EBcvkstVDpyX7RQJNHxpMg8",
			"signature": "3045022100ec305763799c17bd1d1a3b450dc4a3c71225e063ea8402e6ead55710b1cae30e022057550e02e4907d75695c013580a148ce0806b7b76031b03e5adf52934cddbb28",
			"signSignature": "304402202660cce7363884fbca0077523fca948374ce07f48cff2624e9450bfe382b99d5022065695030b29ac169742732a9a3367db556499548d17901886cfaf510268a9a5e",
			"vendorField": "itsanametoo: profit share",
			"asset": {
				"payments": [
					{ "amount": "897024432", "recipientId": "D6i8P5N44rFto6M6RALyUXLLs7Q1A1WREW" },
					{ "amount": "1107100", "recipientId": "D8wgoDnRNAW1tnjeTy5a39zMp8Wa3sJSFZ" },
					{ "amount": "33332", "recipientId": "DBATZrT4dpe85EH766crio3ooApjaAvQDf" },
					{ "amount": "8766", "recipientId": "DTwEiK74duN5Van99HdiSZc5nrrfMS77rZ" },
					{ "amount": "5643", "recipientId": "DM7UiH4b2rW2Nv11Wu6ToiZi8MJhGCEWhP" },
					{ "amount": "4617", "recipientId": "DJeeNChUW5WzRLFuTEY3GEXiuYmgMYZM3Z" },
					{ "amount": "1350", "recipientId": "DFMqgotRcYwk6KUaBJhoAuJvRUSMYxabZv" },
					{ "amount": "908028", "recipientId": "DUBcre2e5KMykYr6xK56T5BrwkKMZkUF8r" },
					{ "amount": "906732", "recipientId": "DE1BK8iL17PiBwo9TUCfkkm1vnUkobBwj8" }
				]
			},
			"confirmations": 18542,
			"timestamp": { "epoch": 94770008, "unix": 1584871208, "human": "2020-03-22T10:00:08.000Z" },
			"nonce": "2939"
		},
		{
			"id": "9125c99b7fc7559a8765ec286afe039aed005498a23bf5f05dc5d6dca67761f7",
			"blockId": "6d5b32d6c5afde96c26adb9d225b8e3ef7e91b01b1764b9f6e1b85c90f1989f1",
			"version": 2,
			"type": 0,
			"typeGroup": 1,
			"amount": "900000000",
			"fee": "10000000",
			"sender": "DBk4cPYpqp7EBcvkstVDpyX7RQJNHxpMg8",
			"senderPublicKey": "0236d5232cdbd1e7ab87fad10ebe689c4557bc9d0c408b6773be964c837231d5f0",
			"recipient": "DSyG9hK9CE8eyfddUoEvsga4kNVQLdw2ve",
			"signature": "3045022100d0ad8d47231f39c3c49183130c39eb7994e4fd85fd189a1292eee66c62b2338302205e038ed7ff97874dd16aad529998456ed2ea78a8082b8c020b463b000fb3931b",
			"signSignature": "304402205b617f5c01e58223f6b49887110aac5a16db915122d74cca1345a6c3d0b4dca7022034f9d0c25c6b3b44a5497ce6e9e1fc347fa3dec8b2e9ed8bdd9c5862a78bfc47",
			"vendorField": "Delegate share",
			"confirmations": 18766,
			"timestamp": { "epoch": 94768208, "unix": 1584869408, "human": "2020-03-22T09:30:08.000Z" },
			"nonce": "2938"
		}
	]
}
